\beamer@endinputifotherversion {3.27pt}
\beamer@sectionintoc {1}{O que \IeC {\'e}?}{2}{0}{1}
\beamer@sectionintoc {2}{Bruteforce}{4}{0}{2}
\beamer@sectionintoc {3}{Divide and Conquer}{6}{0}{3}
\beamer@sectionintoc {4}{Moore's Voting}{8}{0}{4}
\beamer@sectionintoc {5}{Resultados}{10}{0}{5}
